11:00 12:00 Математика Economics
13:00 14:00 Экономика Economics
10:00 11:30 Обществознание Psychology
11:00 12:00 Математика Economics
13:00 14:00 Экономика Economics
10:00 11:30 Обществознание Psychology
